{
    "name": "VVT Capaciteit",
    "short_name": "VVT Capaciteit",
    "icons": [
        {
            "src": "/android-chrome-192x192.png",
            "sizes": "192x192",
            "type": "image/png"
        }
    ],
    "theme_color": "#f7f7f7",
    "background_color": "#f7f7f7",
    "display": "standalone"
}
