{
  "Id": "531d0011-8b4f-48b2-b5cf-99456daf3d41",
  "Name": "POINTFlowZH-VVT 11943 to 11944: FlowFieldValue rebuild FlowInstanceID from TransferID",
  "ObjectIds": [
    {
      "Name": "FlowFieldValue",
      "Owner": "dbo",
      "ObjectType": "Table"
    },
    {
      "Name": "MutFlowFieldValue",
      "Owner": "dbo",
      "ObjectType": "Table"
    }
  ]
}