<?xml version="1.0" standalone="no"?>
<!DOCTYPE svg PUBLIC "-//W3C//DTD SVG 20010904//EN"
 "http://www.w3.org/TR/2001/REC-SVG-20010904/DTD/svg10.dtd">
<svg version="1.0" xmlns="http://www.w3.org/2000/svg"
 width="250.000000pt" height="250.000000pt" viewBox="0 0 250.000000 250.000000"
 preserveAspectRatio="xMidYMid meet">
<metadata>
Created by potrace 1.11, written by Peter Selinger 2001-2013
</metadata>
<g transform="translate(0.000000,250.000000) scale(0.100000,-0.100000)"
fill="#000000" stroke="none">
<path d="M682 2480 c-112 -29 -187 -74 -277 -165 -92 -92 -136 -166 -165 -281
-19 -73 -20 -113 -20 -788 0 -689 1 -714 21 -786 43 -155 126 -273 253 -358
131 -87 164 -95 439 -100 l237 -4 -2 209 -3 208 -160 5 c-139 5 -165 8 -201
27 -91 48 -141 109 -169 206 -14 48 -15 125 -13 618 l3 564 26 56 c34 71 87
125 158 158 51 23 70 26 209 29 l152 4 0 209 0 209 -207 -1 c-171 0 -221 -3
-281 -19z"/>
<path d="M1250 2291 l0 -209 153 -4 c139 -3 157 -6 207 -29 97 -46 159 -127
180 -234 8 -39 10 -153 8 -330 -3 -267 -3 -271 -29 -325 -34 -74 -76 -120
-141 -156 l-53 -29 -208 -3 -207 -3 2 -212 3 -212 200 -3 c222 -3 334 7 421
37 146 52 276 167 344 303 66 135 70 168 70 636 0 466 -5 513 -68 642 -51 105
-169 223 -273 273 -118 57 -176 67 -406 67 l-203 0 0 -209z"/>
<path d="M1070 1749 c-60 -25 -60 -24 -60 -245 0 -111 3 -210 6 -219 14 -35
58 -45 194 -45 143 0 185 11 195 53 3 12 4 112 3 221 l-3 199 -28 21 c-25 18
-44 21 -155 23 -70 2 -138 -2 -152 -8z"/>
</g>
</svg>
