{
  "Id": "e7d5a27e-f23f-4c76-b046-4863af4cdd2a",
  "Name": "Main 15365 to 15402: Migrate PhaseInstance organization and departmentid values",
  "ObjectIds": [
    {
      "Name": "PhaseInstance",
      "Owner": "dbo",
      "ObjectType": "Table"
    },
    {
      "Name": "Employee",
      "Owner": "dbo",
      "ObjectType": "Table"
    },
    {
      "Name": "FlowInstance",
      "Owner": "dbo",
      "ObjectType": "Table"
    },
    {
      "Name": "LocationCare",
      "Owner": "dbo",
      "ObjectType": "Table"
    }
  ]
}